4 Skin: Post-clustering QC and characterization – Blass & Keskin (2025): Melanoma NeoVax analysis: Skin single-cell RNAseq
…
4.5 Identify cursory marker genes of each cluster

Note layers were already joined in previous session

DefaultAssay(merged.18279.skin.singlets) <- "RNA"

vargenes <- presto::wilcoxauc(merged.18279.skin.singlets, 'seurat_clusters', seurat_assay = 'RNA')
top_vargenes <- top_markers(vargenes, n = 100, auc_min = 0.5, pct_in_min = 50, pct_out_max = 50)
top_vargenes

# A tibble: 100 × 28
    rank `0`   `1`   `10`  `11`  `12`  `13`  `14`  `15`  `16`  `17`  `18`  `19` 
   <int> <chr> <chr> <chr> <chr> <chr> <chr> <chr> <chr> <chr> <chr> <chr> <chr>
 1     1 TYRO… IL7R  COL6… CNOT… DOCK4 STMN1 ENSG… LAMP3 HPGD  TM4S… CPVL  XCL1 
 2     2 BCL2… SPOC… DCN   SYNE2 RBM47 HMGB2 IL3RA FSCN1 TPSA… SPAR… WDFY4 TNFR…
 3     3 IL1RN CD3E  COL6… PARP8 FNDC… TYMS  IRF4  DAPP1 TPSB2 PECA… ENSG… XCL2 
 4     4 FCER… LTB   COL1… BCL1… MYO9B RRM2  P2RY6 MARC… CPA3  GNG11 HLA-… CTSW 
 5     5 IFI30 IL32  NNMT  SLC3… KYNU  MKI67 ENSG… NUB1  HPGDS CAV1  HLA-… SYTL3
 6     6 MARC… ICOS  CALD1 PRKCH CYRIA DUT   PLD4  CERS6 GATA2 RAMP2 C1or… CD69 
 7     7 PLAUR CD52  C1R   PPP1… ABCA1 PCLAF SLC1… CD83  KIT   A2M   DNAS… RIN3 
 8     8 S100… CD3D  SELE… RORA  DMXL2 H4C3  JCHA… CCR7  CTSG  PDLI… HDAC9 CD96 
 9     9 ENSG… CD2   CXCL… CAMK4 ATP1… MCM7  POLB  BASP1 HDC   ADGR… RUBC… CSF2 
10    10 PLEK  CD6   COL1… KLF12 FNIP2 KIF22 FCHS… CSF2… IL18… EMCN  CLEC… KLRB1
# ℹ 90 more rows
# ℹ 15 more variables: `2` <chr>, `20` <chr>, `21` <chr>, `22` <chr>,
#   `23` <chr>, `24` <chr>, `25` <chr>, `26` <chr>, `3` <chr>, `4` <chr>,
#   `5` <chr>, `6` <chr>, `7` <chr>, `8` <chr>, `9` <chr>
…
