6 Skin: Sub-clustering on T/NK lineage – Blass & Keskin (2025): Melanoma NeoVax analysis: Skin single-cell RNAseq
…
6.6 Identify updated cursory marker genes per cluster/sub-cluster

DefaultAssay(merged.18279.skin.singlets) <- "RNA"

vargenes <- presto::wilcoxauc(merged.18279.skin.singlets, 'sub.cluster', seurat_assay = 'RNA')
top_vargenes <- top_markers(vargenes, n = 100, auc_min = 0.5, pct_in_min = 50, pct_out_max = 50)
top_vargenes

# A tibble: 100 × 38
    rank `0`     `1_0` `1_1` `10`  `11_0` `11_1` `12`  `13_0` `13_1` `14`  `15` 
   <int> <chr>   <chr> <chr> <chr> <chr>  <chr>  <chr> <chr>  <chr>  <chr> <chr>
 1     1 TYROBP  IL7R  ICOS  COL6… CNOT6L LDLRA… DOCK4 STMN1  STMN1  ENSG… LAMP3
 2     2 BCL2A1  LTB   CD2   DCN   PARP8  SKAP1  RBM47 HMGB2  TYMS   IL3RA FSCN1
 3     3 IL1RN   SPOC… CD3E  COL6… SYNE2  ZEB1   FNDC… TYMS   HMGB2  IRF4  DAPP1
 4     4 FCER1G  CD3E  CD3D  COL1… BCL11B SYNE2  MYO9B RRM2   GZMB   P2RY6 MARC…
 5     5 IFI30   KLF2  SPOC… NNMT  SLC38… STAM   KYNU  DUT    CTSW   ENSG… NUB1 
 6     6 MARCKS  LDHB  CLEC… CALD1 PRKCH  CASK   CYRIA MKI67  NKG7   PLD4  CERS6
 7     7 PLAUR   ICOS  TENT… C1R   PPP1R… IKZF2  ABCA1 PPP1CA GZMA   SLC1… CD83 
 8     8 S100A9  CD6   CD6   SELE… CAMK4  CD247  DMXL2 CKS1B  GNLY   JCHA… CCR7 
 9     9 ENSG00… CD3D  PDCD1 CXCL… PITPN… PRKCH  ATP1… PCLAF  RRM2   POLB  BASP1
10    10 PLEK    BCL1… BCL1… COL1… KLF12  RORA   FNIP2 H4C3   PRF1   FCHS… CSF2…
# ℹ 90 more rows
# ℹ 26 more variables: `16` <chr>, `17` <chr>, `18` <chr>, `19_0` <chr>,
#   `2_0` <chr>, `2_1` <chr>, `2_2` <chr>, `20` <chr>, `21` <chr>, `22` <chr>,
#   `23` <chr>, `24` <chr>, `25` <chr>, `26` <chr>, `3` <chr>, `4_0` <chr>,
#   `4_1` <chr>, `5_0` <chr>, `5_1` <chr>, `5_2` <chr>, `6_0` <chr>,
#   `6_1` <chr>, `7` <chr>, `8` <chr>, `9_0` <chr>, `9_1` <chr>
…
