10 Skin: Deep phenotyping, cluster annotation, and exploration of Post vs Pre 3rd vaccination differences in cell proportions and expression – Blass & Keskin (2025): Melanoma NeoVax analysis: Skin sin
…
`summarise()` has grouped output by 'CellAnnotation'. You can override using
the `.groups` argument.

props

# A tibble: 629 × 8
# Groups:   Sample [17]
   Sample    TotalCells CellAnnotation      n Patient Site  Timepoint Proportion
   <chr>          <dbl> <fct>           <int> <chr>   <chr> <chr>          <dbl>
 1 P101_Post       1718 MonoMac_1         410 P101    Skin  Post        0.239   
 2 P101_Post       1718 CD4_T_Naive/CM     74 P101    Skin  Post        0.0431  
 3 P101_Post       1718 CD4_T_CTL          15 P101    Skin  Post        0.00873 
 4 P101_Post       1718 CD8_T_EM_1         70 P101    Skin  Post        0.0407  
 5 P101_Post       1718 CD8_T_Naive/CM…    25 P101    Skin  Post        0.0146  
 6 P101_Post       1718 CD8_T_EM_2         18 P101    Skin  Post        0.0105  
 7 P101_Post       1718 MonoMac_2         264 P101    Skin  Post        0.154   
 8 P101_Post       1718 CD8_T_Naive/CM…    80 P101    Skin  Post        0.0466  
 9 P101_Post       1718 CD8_T_Naive/CM…     1 P101    Skin  Post        0.000582
10 P101_Post       1718 NK/T_1             18 P101    Skin  Post        0.0105  
# ℹ 619 more rows
…
