9 Skin: Differential expression analysis, Post vs Pre 3rd vaccination – Blass & Keskin (2025): Melanoma NeoVax analysis: Skin single-cell RNAseq
…
# Combine results from all clusters into one tibble
df <- bind_rows(res$table$`Post3rd-Pre3rd`, .id = "sub.cluster") %>% 
    as_tibble()

9.3.5 Show snippet of results from one cluster: upregulated genes in cluster 7

df %>% 
    dplyr::filter(p_adj.loc < 0.05 & sub.cluster=="7" & logFC > 0) %>% 
    dplyr::arrange(p_adj.loc) %>% 
    print(n=30)

# A tibble: 927 × 11
   sub.cluster gene     cluster_id baseMean logFC lfcSE  stat    p_val p_adj.loc
   <chr>       <chr>    <chr>         <dbl> <dbl> <dbl> <dbl>    <dbl>     <dbl>
 1 7           APOBEC3A 7             716.   4.29 0.422 10.2  3.21e-24  2.56e-20
 2 7           ISG15    7            1378.   4.40 0.441  9.99 1.74e-23  6.95e-20
 3 7           IFI6     7             648.   4.10 0.413  9.91 3.94e-23  1.05e-19
 4 7           MX1      7             361.   3.94 0.434  9.09 1.03e-19  2.05e-16
 5 7           OAS2     7              78.2  3.31 0.370  8.95 3.43e-19  5.48e-16
 6 7           IRF7     7             310.   2.48 0.280  8.84 9.97e-19  1.33e-15
 7 7           OAS1     7             131.   3.75 0.429  8.74 2.40e-18  2.73e-15
 8 7           IFI35    7             164.   3.08 0.355  8.68 4.03e-18  3.59e-15
 9 7           LY6E     7             822.   2.92 0.337  8.68 4.05e-18  3.59e-15
10 7           OAS3     7              65.9  3.21 0.390  8.24 1.78e-16  1.29e-13
11 7           XAF1     7             125.   2.78 0.353  7.88 3.26e-15  1.45e-12
12 7           SAMD9    7              56.3  3.20 0.411  7.77 7.74e-15  3.09e-12
13 7           IL15RA   7              35.5  2.68 0.345  7.76 8.59e-15  3.26e-12
14 7           PSME2    7             791.   1.62 0.210  7.72 1.16e-14  4.01e-12
15 7           LGALS9   7             352.   1.66 0.215  7.71 1.25e-14  4.15e-12
16 7           TNFSF10  7             295.   3.25 0.422  7.70 1.32e-14  4.21e-12
17 7           EPSTI1   7             289.   2.69 0.350  7.67 1.67e-14  5.12e-12
18 7           PML      7             109.   1.87 0.243  7.67 1.76e-14  5.21e-12
19 7           IFITM1   7            1481.   4.47 0.594  7.52 5.39e-14  1.34e-11
20 7           SERPING1 7             322.   2.71 0.362  7.49 7.13e-14  1.69e-11
21 7           UBE2L6   7             247.   2.13 0.285  7.48 7.22e-14  1.69e-11
22 7           IFIT3    7              82.2  6.32 0.846  7.47 8.24e-14  1.87e-11
23 7           PPA1     7             507.   2.46 0.330  7.46 8.44e-14  1.87e-11
24 7           TYMP     7            1459.   2.09 0.281  7.45 9.52e-14  2.05e-11
25 7           NMI      7              78.9  2.24 0.302  7.43 1.07e-13  2.24e-11
26 7           LYSMD2   7              80.9  1.83 0.246  7.43 1.10e-13  2.26e-11
27 7           ENSG000… 7              25.5  3.14 0.424  7.40 1.38e-13  2.75e-11
28 7           LGALS3BP 7             147.   2.38 0.323  7.38 1.59e-13  3.09e-11
29 7           SP110    7             139.   1.98 0.269  7.36 1.81e-13  3.43e-11
30 7           IFI44L   7             107.   3.88 0.529  7.33 2.27e-13  4.22e-11
# ℹ 897 more rows
# ℹ 2 more variables: p_adj.glb <dbl>, contrast <chr>
…
