11 Skin: Calculating Post vs Pre 3rd vaccination differences in pathway enrichments with fgsea – Blass & Keskin (2025): Melanoma NeoVax analysis: Skin single-cell RNAseq
…
skin_de <- read_tsv("Skin_scRNA_PostVsPre3rd_DiffExp_results.tsv")

Rows: 125307 Columns: 11
── Column specification ────────────────────────────────────────────────────────
Delimiter: "\t"
chr (4): sub.cluster, gene, cluster_id, contrast
dbl (7): baseMean, logFC, lfcSE, stat, p_val, p_adj.loc, p_adj.glb

ℹ Use `spec()` to retrieve the full column specification for this data.
ℹ Specify the column types or set `show_col_types = FALSE` to quiet this message.

skin_de

# A tibble: 125,307 × 11
   sub.cluster gene   cluster_id baseMean   logFC lfcSE   stat   p_val p_adj.loc
   <chr>       <chr>  <chr>         <dbl>   <dbl> <dbl>  <dbl>   <dbl>     <dbl>
 1 0           7SK    0            166.   -2.09   0.470 -4.44  9.12e-6  0.000168
 2 0           A2M    0             84.8  -3.11   1.07  -2.90  3.75e-3  0.0215  
 3 0           AAGAB  0             21.1   0.113  0.282  0.400 6.89e-1  0.817   
 4 0           AAK1   0            105.   -0.111  0.154 -0.724 4.69e-1  0.650   
 5 0           AAMDC  0             22.9   0.303  0.280  1.08  2.79e-1  0.471   
 6 0           AAMP   0             50.9   0.0513 0.219  0.234 8.15e-1  0.897   
 7 0           AAR2   0              9.66  0.0439 0.430  0.102 9.19e-1  0.959   
 8 0           AARS1  0             12.1  -0.160  0.327 -0.489 6.25e-1  0.773   
 9 0           AASDH… 0             14.8   0.495  0.315  1.57  1.16e-1  0.262   
10 0           AATF   0             50.2   0.489  0.233  2.10  3.58e-2  0.116   
# ℹ 125,297 more rows
# ℹ 2 more variables: p_adj.glb <dbl>, contrast <chr>
…
